NYPD Shooting Incident Data (Historic)
…
## -- Column specification --------------------------------------------------------
## Delimiter: ","
## chr  (10): OCCUR_DATE, BORO, LOCATION_DESC, PERP_AGE_GROUP, PERP_SEX, PERP_R...
## dbl   (7): INCIDENT_KEY, PRECINCT, JURISDICTION_CODE, X_COORD_CD, Y_COORD_CD...
## lgl   (1): STATISTICAL_MURDER_FLAG
## time  (1): OCCUR_TIME

## 
## i Use `spec()` to retrieve the full column specification for this data.
## i Specify the column types or set `show_col_types = FALSE` to quiet this message.

NYPD_data

## # A tibble: 23,585 x 19
##    INCIDENT_KEY OCCUR_DATE OCCUR_TIME BORO     PRECINCT JURISDICTION_CODE
##           <dbl> <chr>      <time>     <chr>       <dbl>             <dbl>
##  1     24050482 08/27/2006 05:35      BRONX          52                 0
##  2     77673979 03/11/2011 12:03      QUEENS        106                 0
##  3    203350417 10/06/2019 01:09      BROOKLYN       77                 0
##  4     80584527 09/04/2011 03:35      BRONX          40                 0
##  5     90843766 05/27/2013 21:16      QUEENS        100                 0
##  6     92393427 09/01/2013 04:17      BROOKLYN       67                 0
##  7     73057167 06/05/2010 21:16      BROOKLYN       77                 0
##  8    211362213 03/20/2020 21:27      BROOKLYN       81                 0
##  9    137564752 07/04/2014 00:25      QUEENS        101                 0
## 10    147024011 10/18/2015 01:33      QUEENS        106                 0
## # ... with 23,575 more rows, and 13 more variables: LOCATION_DESC <chr>,
## #   STATISTICAL_MURDER_FLAG <lgl>, PERP_AGE_GROUP <chr>, PERP_SEX <chr>,
## #   PERP_RACE <chr>, VIC_AGE_GROUP <chr>, VIC_SEX <chr>, VIC_RACE <chr>,
## #   X_COORD_CD <dbl>, Y_COORD_CD <dbl>, Latitude <dbl>, Longitude <dbl>,
## #   Lon_Lat <chr>
…
tidy_NYPD_data

## # A tibble: 23,585 x 4
##    OCCUR_DATE BORO     VIC_SEX VIC_RACE      
##    <chr>      <chr>    <chr>   <chr>         
##  1 08/27/2006 BRONX    F       BLACK HISPANIC
##  2 03/11/2011 QUEENS   M       WHITE         
##  3 10/06/2019 BROOKLYN F       BLACK         
##  4 09/04/2011 BRONX    M       BLACK         
##  5 05/27/2013 QUEENS   M       BLACK         
##  6 09/01/2013 BROOKLYN M       BLACK         
##  7 06/05/2010 BROOKLYN M       BLACK         
##  8 03/20/2020 BROOKLYN M       BLACK         
##  9 07/04/2014 QUEENS   M       BLACK         
## 10 10/18/2015 QUEENS   M       BLACK         
## # ... with 23,575 more rows
…
After condensing as much as possible in the previous code, it was necessary to find summarize the data, using the summary() function, to ensure all the data is correct. Unfortunately, since the OCCUR_DATE column was not classified as a date but as a character, this column needed to be manipulated into a date classified column. This process can be seen in the following code chunk.

#convert the OCCUR_DATE column from character to date class 
tidy_NYPD_data_date <- tidy_NYPD_data %>%
  rename(Borough = BORO,
         Victim_Sex = VIC_SEX,
         Victim_Race = VIC_RACE) %>%
  mutate(Date = as.Date(OCCUR_DATE, "%m/%d/%Y")) %>%
  select(-c(OCCUR_DATE))
tidy_NYPD_data_date

## # A tibble: 23,585 x 4
##    Borough  Victim_Sex Victim_Race    Date      
##    <chr>    <chr>      <chr>          <date>    
##  1 BRONX    F          BLACK HISPANIC 2006-08-27
##  2 QUEENS   M          WHITE          2011-03-11
##  3 BROOKLYN F          BLACK          2019-10-06
##  4 BRONX    M          BLACK          2011-09-04
##  5 QUEENS   M          BLACK          2013-05-27
##  6 BROOKLYN M          BLACK          2013-09-01
##  7 BROOKLYN M          BLACK          2010-06-05
##  8 BROOKLYN M          BLACK          2020-03-20
##  9 QUEENS   M          BLACK          2014-07-04
## 10 QUEENS   M          BLACK          2015-10-18
## # ... with 23,575 more rows
…
For the next portion, to simplify the data for analysis, rather than using the actual dates in the the Date column, it was simpler to utilize only the years. So the Date column needed to be simplified into a Year column.

tidy_NYPD_data_final <- tidy_NYPD_data_date%>%
  mutate(Year = format(Date, "%Y")) %>%
  group_by(Borough, Victim_Sex, Victim_Race, Year) %>%
  summarise(name_count = n())%>%
  select(Borough,
         Victim_Sex, 
         Victim_Race,
         Year)%>%
  ungroup()
tidy_NYPD_data_final

## # A tibble: 649 x 4
##    Borough Victim_Sex Victim_Race Year 
##    <chr>   <chr>      <chr>       <chr>
##  1 BRONX   F          BLACK       2006 
##  2 BRONX   F          BLACK       2007 
##  3 BRONX   F          BLACK       2008 
##  4 BRONX   F          BLACK       2009 
##  5 BRONX   F          BLACK       2010 
##  6 BRONX   F          BLACK       2011 
##  7 BRONX   F          BLACK       2012 
##  8 BRONX   F          BLACK       2013 
##  9 BRONX   F          BLACK       2014 
## 10 BRONX   F          BLACK       2015 
## # ... with 639 more rows
…
